National Parks
…
mydata %>% group_by(unit_name, state) %>% summarize(mean_visitors = mean(visitors, 
    na.rm = T), sd_visitors = sd(visitors, na.rm = T), n(), var_visitors = var(visitors, 
    na.rm = T), min_visitors = min(visitors, na.rm = T), max_visitors = max(visitors, 
    na.rm = T), median_visitors = median(visitors, na.rm = T)) %>% 
    arrange(desc(mean_visitors)) %>% tibble

## # A tibble: 61 x 9
##    unit_name state mean_visitors sd_visitors `n()` var_visitors min_visitors
##    <chr>     <chr>         <dbl>       <dbl> <int>        <dbl>        <dbl>
##  1 Great Sm… NC         6444808.    3226883.    71      1.04e13       383116
##  2 Grand Ca… AZ         2433082.    1496870.    71      2.24e12        64568
##  3 Yosemite… CA         2242427.    1152875.    71      1.33e12       116682
##  4 Rocky Mo… CO         2136912.     823646.    71      6.78e11       124353
##  5 Yellowst… WY         2088743.     855565.    71      7.32e11        61696
##  6 Cuyahoga… OH         2065737.    1087364.    33      1.18e12       496400
##  7 Acadia N… ME         2026889.    1194398.    71      1.43e12         8246
##  8 Olympic … WA         1998371.    1140328.    71      1.30e12        56076
##  9 Grand Te… WY         1828362.     974262.    71      9.49e11         8203
## 10 Shenando… VA         1617563.     561522.    71      3.15e11        41831
## # … with 51 more rows, and 2 more variables: max_visitors <dbl>,
## #   median_visitors <dbl>
…
mydata %>% group_by(state) %>% summarize(mean_visitors = mean(visitors, 
    na.rm = T), sd_visitors = sd(visitors, na.rm = T), n_ = n(), 
    var_visitors = var(visitors, na.rm = T), min_visitors = min(visitors, 
        na.rm = T), max_visitors = max(visitors, na.rm = T), 
    median_visitors = median(visitors, na.rm = T)) %>% pivot_wider(names_from = "state", 
    values_from = contains("_")) %>% pivot_longer(contains("_")) %>% 
    tibble

## # A tibble: 189 x 2
##    name                value
##    <chr>               <dbl>
##  1 mean_visitors_AK  118874.
##  2 mean_visitors_AR 1106453.
##  3 mean_visitors_AS    2840.
##  4 mean_visitors_AZ 1170791.
##  5 mean_visitors_CA  697830.
##  6 mean_visitors_CO  723100.
##  7 mean_visitors_FL  388423.
##  8 mean_visitors_HI  956727.
##  9 mean_visitors_KY 1144862.
## 10 mean_visitors_ME 2026889.
## # … with 179 more rows
…
##                                           Comp.1    Comp.2   Comp.3
## Great.Smoky.Mountains.National.Park.70 1.0104634 0.3405512 2.406163
## Rocky.Mountain.National.Park.70        0.8112634 0.8015994 2.346894
## Shenandoah.National.Park.70            0.9347152 0.5158704 2.383625

mydata_pca2$scores[, 1:3] %>% as.data.frame %>% top_n(-3, Comp.3)

##                                     Comp.1    Comp.2    Comp.3
## Kobuk.Valley.National.Park.2      1.888589 1.2685581 -2.314043
## Kobuk.Valley.National.Park.3      1.034341 0.9000793 -2.314253
## National.Park.of.American.Samoa.2 1.889261 1.2670038 -2.313843

mydata_pca1 %>% filter(unit_name %in% c("Great Smoky Mountains National Park"))

## # A tibble: 71 x 4
##    unit_name                           unemployed_percent visitors gas_current
##    <chr>                                            <dbl>    <dbl>       <dbl>
##  1 Great Smoky Mountains National Park                9.6  9463538        2.79
##  2 Great Smoky Mountains National Park                9.3  9491437        2.35
##  3 Great Smoky Mountains National Park                5.8  9044010        3.27
##  4 Great Smoky Mountains National Park                4.6  9372253        2.8 
##  5 Great Smoky Mountains National Park                4.6  9289215        2.59
##  6 Great Smoky Mountains National Park                5.1  9192477        2.3 
##  7 Great Smoky Mountains National Park                5.5  9167046        1.88
##  8 Great Smoky Mountains National Park                6    9366845        1.59
##  9 Great Smoky Mountains National Park                5.8  9316420        1.36
## 10 Great Smoky Mountains National Park                4.7  9197697        1.46
## # … with 61 more rows

mydata_pca1 %>% filter(unit_name %in% c("Capitol Reef National Park", 
    "Denali National Park ", "Denali National Preserve "))

## # A tibble: 69 x 4
##    unit_name                  unemployed_percent visitors gas_current
##    <chr>                                   <dbl>    <dbl>       <dbl>
##  1 Capitol Reef National Park                9.6   662661        2.79
##  2 Capitol Reef National Park                9.3   617208        2.35
##  3 Capitol Reef National Park                5.8   604811        3.27
##  4 Capitol Reef National Park                4.6   554907        2.8 
##  5 Capitol Reef National Park                4.6   511511        2.59
##  6 Capitol Reef National Park                5.1   550255        2.3 
##  7 Capitol Reef National Park                5.5   549708        1.88
##  8 Capitol Reef National Park                6     535441        1.59
##  9 Capitol Reef National Park                5.8   525646        1.36
## 10 Capitol Reef National Park                4.7   527760        1.46
## # … with 59 more rows

mydata_pca1 %>% filter(unit_name %in% c("Kobuk Valley National Park ", 
    "Lake Clark National Park  ", "National Park of American Samoa "))

## # A tibble: 0 x 4
## # … with 4 variables: unit_name <chr>, unemployed_percent <dbl>,
## #   visitors <dbl>, gas_current <dbl>

mydata_pca1 %>% filter(unit_name %in% c("Great Smoky Mountains National Park"))

## # A tibble: 71 x 4
##    unit_name                           unemployed_percent visitors gas_current
##    <chr>                                            <dbl>    <dbl>       <dbl>
##  1 Great Smoky Mountains National Park                9.6  9463538        2.79
##  2 Great Smoky Mountains National Park                9.3  9491437        2.35
##  3 Great Smoky Mountains National Park                5.8  9044010        3.27
##  4 Great Smoky Mountains National Park                4.6  9372253        2.8 
##  5 Great Smoky Mountains National Park                4.6  9289215        2.59
##  6 Great Smoky Mountains National Park                5.1  9192477        2.3 
##  7 Great Smoky Mountains National Park                5.5  9167046        1.88
##  8 Great Smoky Mountains National Park                6    9366845        1.59
##  9 Great Smoky Mountains National Park                5.8  9316420        1.36
## 10 Great Smoky Mountains National Park                4.7  9197697        1.46
## # … with 61 more rows
…
